<?xml version="1.0" encoding="UTF-8" standalone="no"?>
<!-- Created with Inkscape (http://www.inkscape.org/) -->

<svg
   xmlns:dc="http://purl.org/dc/elements/1.1/"
   xmlns:cc="http://creativecommons.org/ns#"
   xmlns:rdf="http://www.w3.org/1999/02/22-rdf-syntax-ns#"
   xmlns:svg="http://www.w3.org/2000/svg"
   xmlns="http://www.w3.org/2000/svg"
   xmlns:sodipodi="http://sodipodi.sourceforge.net/DTD/sodipodi-0.dtd"
   xmlns:inkscape="http://www.inkscape.org/namespaces/inkscape"
   width="372.53336mm"
   height="217.71428mm"
   viewBox="0 0 372.53335 217.71427"
   version="1.1"
   id="svg8"
   inkscape:version="0.92.3 (2405546, 2018-03-11)"
   sodipodi:docname="flexbox-3.svg">
  <defs
     id="defs2" />
  <sodipodi:namedview
     id="base"
     pagecolor="#ffffff"
     bordercolor="#666666"
     borderopacity="1.0"
     inkscape:pageopacity="0.0"
     inkscape:pageshadow="2"
     inkscape:zoom="0.35"
     inkscape:cx="701.76787"
     inkscape:cy="355.57069"
     inkscape:document-units="mm"
     inkscape:current-layer="layer1"
     showgrid="false"
     inkscape:window-width="1366"
     inkscape:window-height="723"
     inkscape:window-x="0"
     inkscape:window-y="22"
     inkscape:window-maximized="1" />
  <metadata
     id="metadata5">
    <rdf:RDF>
      <cc:Work
         rdf:about="">
        <dc:format>image/svg+xml</dc:format>
        <dc:type
           rdf:resource="http://purl.org/dc/dcmitype/StillImage" />
        <dc:title />
      </cc:Work>
    </rdf:RDF>
  </metadata>
  <g
     inkscape:label="Layer 1"
     inkscape:groupmode="layer"
     id="layer1"
     transform="translate(13.607142,-51.315475)">
    <rect
       style="fill:#00aa44;fill-rule:evenodd;stroke-width:0.59331429"
       id="rect815"
       width="372.53336"
       height="217.71428"
       x="-13.607142"
       y="51.315475"
       ry="1.0263124" />
    <rect
       style="fill:#ffffff;fill-rule:evenodd;stroke:#217844;stroke-width:0.328915"
       id="rect817"
       width="54.364239"
       height="53.608288"
       x="2.6024044"
       y="64.19883"
       ry="0.44224468" />
    <rect
       ry="0.44224468"
       y="64.19883"
       x="72.905975"
       height="53.608288"
       width="54.364239"
       id="rect819"
       style="fill:#ffffff;fill-rule:evenodd;stroke:#217844;stroke-width:0.328915" />
    <rect
       style="fill:#ffffff;fill-rule:evenodd;stroke:#217844;stroke-width:0.328915"
       id="rect821"
       width="54.364239"
       height="53.608288"
       x="147.74525"
       y="64.19883"
       ry="0.44224468" />
    <text
       xml:space="preserve"
       style="font-style:normal;font-variant:normal;font-weight:normal;font-stretch:normal;font-size:50.79999924px;line-height:1.25;font-family:Dyuthi;-inkscape-font-specification:Dyuthi;letter-spacing:0px;word-spacing:0px;fill:#000000;fill-opacity:1;stroke:none;stroke-width:0.26458332"
       x="19.583826"
       y="106.28266"
       id="text825"><tspan
         sodipodi:role="line"
         id="tspan823"
         x="19.583826"
         y="106.28266"
         style="stroke-width:0.26458332">1</tspan></text>
    <text
       xml:space="preserve"
       style="font-style:normal;font-variant:normal;font-weight:normal;font-stretch:normal;font-size:50.79999924px;line-height:1.25;font-family:Dyuthi;-inkscape-font-specification:Dyuthi;letter-spacing:0px;word-spacing:0px;fill:#000000;fill-opacity:1;stroke:none;stroke-width:0.26458332"
       x="85.76947"
       y="106.27026"
       id="text829"><tspan
         sodipodi:role="line"
         id="tspan827"
         x="85.76947"
         y="106.27026"
         style="stroke-width:0.26458332">2</tspan></text>
    <text
       xml:space="preserve"
       style="font-style:normal;font-variant:normal;font-weight:normal;font-stretch:normal;font-size:50.79999924px;line-height:1.25;font-family:Dyuthi;-inkscape-font-specification:Dyuthi;letter-spacing:0px;word-spacing:0px;fill:#000000;fill-opacity:1;stroke:none;stroke-width:0.26458332"
       x="161.8069"
       y="106.48171"
       id="text833"><tspan
         sodipodi:role="line"
         id="tspan831"
         x="161.8069"
         y="106.48171"
         style="stroke-width:0.26458332">3</tspan></text>
    <rect
       ry="0.44224468"
       y="64.19883"
       x="219.56073"
       height="53.608288"
       width="54.364239"
       id="rect906"
       style="fill:#ffffff;fill-rule:evenodd;stroke:#217844;stroke-width:0.328915" />
    <rect
       style="fill:#ffffff;fill-rule:evenodd;stroke:#217844;stroke-width:0.328915"
       id="rect908"
       width="54.364239"
       height="53.608288"
       x="289.10834"
       y="64.19883"
       ry="0.44224468" />
    <text
       xml:space="preserve"
       style="font-style:normal;font-variant:normal;font-weight:normal;font-stretch:normal;font-size:50.79999924px;line-height:1.25;font-family:Dyuthi;-inkscape-font-specification:Dyuthi;letter-spacing:0px;word-spacing:0px;fill:#000000;fill-opacity:1;stroke:none;stroke-width:0.26458332"
       x="229.3786"
       y="106.33227"
       id="text912"><tspan
         sodipodi:role="line"
         id="tspan910"
         x="229.3786"
         y="106.33227"
         style="stroke-width:0.26458332">4</tspan></text>
    <text
       xml:space="preserve"
       style="font-style:normal;font-variant:normal;font-weight:normal;font-stretch:normal;font-size:50.79999924px;line-height:1.25;font-family:Dyuthi;-inkscape-font-specification:Dyuthi;letter-spacing:0px;word-spacing:0px;fill:#000000;fill-opacity:1;stroke:none;stroke-width:0.26458332"
       x="301.79202"
       y="106.51779"
       id="text916"><tspan
         sodipodi:role="line"
         id="tspan914"
         x="301.79202"
         y="106.51779"
         style="stroke-width:0.26458332">5</tspan></text>
    <rect
       ry="0.44224468"
       y="136.01431"
       x="2.6024044"
       height="53.608288"
       width="54.364239"
       id="rect918"
       style="fill:#ffffff;fill-rule:evenodd;stroke:#217844;stroke-width:0.328915" />
    <rect
       style="fill:#ffffff;fill-rule:evenodd;stroke:#217844;stroke-width:0.328915"
       id="rect920"
       width="54.364239"
       height="53.608288"
       x="72.150024"
       y="136.01431"
       ry="0.44224468" />
    <rect
       ry="0.44224468"
       y="136.01431"
       x="147.74525"
       height="53.608288"
       width="54.364239"
       id="rect922"
       style="fill:#ffffff;fill-rule:evenodd;stroke:#217844;stroke-width:0.328915" />
    <rect
       style="fill:#ffffff;fill-rule:evenodd;stroke:#217844;stroke-width:0.328915"
       id="rect924"
       width="54.364239"
       height="53.608288"
       x="219.56073"
       y="136.01431"
       ry="0.44224468" />
    <text
       xml:space="preserve"
       style="font-style:normal;font-variant:normal;font-weight:normal;font-stretch:normal;font-size:50.79999924px;line-height:1.25;font-family:Dyuthi;-inkscape-font-specification:Dyuthi;letter-spacing:0px;word-spacing:0px;fill:#000000;fill-opacity:1;stroke:none;stroke-width:0.26458332"
       x="12.853908"
       y="178.24698"
       id="text930"><tspan
         sodipodi:role="line"
         id="tspan928"
         x="12.853908"
         y="178.24698"
         style="stroke-width:0.26458332">6</tspan></text>
    <text
       xml:space="preserve"
       style="font-style:normal;font-variant:normal;font-weight:normal;font-stretch:normal;font-size:50.79999924px;line-height:1.25;font-family:Dyuthi;-inkscape-font-specification:Dyuthi;letter-spacing:0px;word-spacing:0px;fill:#000000;fill-opacity:1;stroke:none;stroke-width:0.26458332"
       x="85.059647"
       y="178.09814"
       id="text934"><tspan
         sodipodi:role="line"
         id="tspan932"
         x="85.059647"
         y="178.09814"
         style="stroke-width:0.26458332">7</tspan></text>
    <text
       xml:space="preserve"
       style="font-style:normal;font-variant:normal;font-weight:normal;font-stretch:normal;font-size:50.79999924px;line-height:1.25;font-family:Dyuthi;-inkscape-font-specification:Dyuthi;letter-spacing:0px;word-spacing:0px;fill:#000000;fill-opacity:1;stroke:none;stroke-width:0.26458332"
       x="158.86633"
       y="178.37154"
       id="text938"><tspan
         sodipodi:role="line"
         id="tspan936"
         x="158.86633"
         y="178.37154"
         style="stroke-width:0.26458332">8</tspan></text>
    <text
       xml:space="preserve"
       style="font-style:normal;font-variant:normal;font-weight:normal;font-stretch:normal;font-size:50.79999924px;line-height:1.25;font-family:Dyuthi;-inkscape-font-specification:Dyuthi;letter-spacing:0px;word-spacing:0px;fill:#000000;fill-opacity:1;stroke:none;stroke-width:0.26458332"
       x="230.46599"
       y="178.65802"
       id="text942"><tspan
         sodipodi:role="line"
         id="tspan940"
         x="230.46599"
         y="178.65802"
         style="stroke-width:0.26458332">9</tspan></text>
    <g
       id="g854">
      <rect
         style="fill:#ffffff;fill-rule:evenodd;stroke:#217844;stroke-width:0.328915"
         id="rect926"
         width="54.364239"
         height="53.608288"
         x="289.10834"
         y="136.01431"
         ry="0.44224468" />
      <text
         id="text946"
         y="178.19736"
         x="290.77286"
         style="font-style:normal;font-variant:normal;font-weight:normal;font-stretch:normal;font-size:50.79999924px;line-height:1.25;font-family:Dyuthi;-inkscape-font-specification:Dyuthi;letter-spacing:0px;word-spacing:0px;fill:#000000;fill-opacity:1;stroke:none;stroke-width:0.26458332"
         xml:space="preserve"><tspan
           style="stroke-width:0.26458332"
           y="178.19736"
           x="290.77286"
           id="tspan944"
           sodipodi:role="line">10</tspan></text>
    </g>
    <rect
       style="fill:#ffffff;fill-rule:evenodd;stroke:#217844;stroke-width:0.328915"
       id="rect856"
       width="54.364239"
       height="53.608288"
       x="2.6024075"
       y="203.29407"
       ry="0.44224468" />
    <text
       id="text860"
       y="245.47711"
       x="11.001408"
       style="font-style:normal;font-variant:normal;font-weight:normal;font-stretch:normal;font-size:50.79999924px;line-height:1.25;font-family:Dyuthi;-inkscape-font-specification:Dyuthi;letter-spacing:0px;word-spacing:0px;fill:#000000;fill-opacity:1;stroke:none;stroke-width:0.26458332"
       xml:space="preserve"><tspan
         style="stroke-width:0.26458332"
         y="245.47711"
         x="11.001408"
         id="tspan858"
         sodipodi:role="line">11</tspan></text>
    <rect
       ry="0.44224468"
       y="203.29407"
       x="72.150024"
       height="53.608288"
       width="54.364239"
       id="rect864"
       style="fill:#ffffff;fill-rule:evenodd;stroke:#217844;stroke-width:0.328915" />
    <text
       xml:space="preserve"
       style="font-style:normal;font-variant:normal;font-weight:normal;font-stretch:normal;font-size:50.79999924px;line-height:1.25;font-family:Dyuthi;-inkscape-font-specification:Dyuthi;letter-spacing:0px;word-spacing:0px;fill:#000000;fill-opacity:1;stroke:none;stroke-width:0.26458332"
       x="77.274803"
       y="245.3779"
       id="text868"><tspan
         sodipodi:role="line"
         id="tspan866"
         x="77.274803"
         y="245.3779"
         style="stroke-width:0.26458332">12</tspan></text>
  </g>
</svg>
